DeepLoc Multiclass predictions - Part II
…
In this notebook, we will investigate, if we are also capable of predicting at how many locations a protein occurs.

Load and prepare data

We use the HPA as a reference dataset. We map the deeploc data to the HPA data.

deeploc = read_tsv("../results/deeploc_all.tsv")
location_mapping = read_tsv("../results/location_mapping.tsv")
hpa = read_tsv("../results/hpa_filtered.tsv")

After preparation we have a table like this:

deeploc_scores

## # A tibble: 79,800 x 5
##    Prediction  hgnc n_locations           compartment  score
##         <chr> <chr>       <int>                 <chr>  <dbl>
##  1  Cytoplasm  A1CF           1               Nucleus 0.0985
##  2  Cytoplasm  A1CF           1             Cytoplasm 0.4778
##  3  Cytoplasm  A1CF           1         Extracellular 0.0059
##  4  Cytoplasm  A1CF           1         Mitochondrion 0.0125
##  5  Cytoplasm  A1CF           1         Cell_membrane 0.0037
##  6  Cytoplasm  A1CF           1 Endoplasmic_reticulum 0.0008
##  7  Cytoplasm  A1CF           1               Plastid 0.0106
##  8  Cytoplasm  A1CF           1       Golgi_apparatus 0.0001
##  9  Cytoplasm  A1CF           1      Lysosome/Vacuole 0.0020
## 10  Cytoplasm  A1CF           1            Peroxisome 0.3881
## # ... with 79,790 more rows
…
